%YAML 1.1
%TAG !u! tag:unity3d.com,2011:
--- !u!114 &-3478372528719216044
MonoBehaviour:
  m_ObjectHideFlags: 11
  m_CorrespondingSourceObject: {fileID: 0}
  m_PrefabInstance: {fileID: 0}
  m_PrefabAsset: {fileID: 0}
  m_GameObject: {fileID: 0}
  m_Enabled: 1
  m_EditorHideFlags: 0
  m_Script: {fileID: 11500000, guid: 639247ca83abc874e893eb93af2b5e44, type: 3}
  m_Name: 
  m_EditorClassIdentifier: 
  version: 0
--- !u!21 &2100000
Material:
  serializedVersion: 8
  m_ObjectHideFlags: 0
  m_CorrespondingSourceObject: {fileID: 0}
  m_PrefabInstance: {fileID: 0}
  m_PrefabAsset: {fileID: 0}
  m_Name: NodeFogMaterial
  m_Shader: {fileID: -6465566751694194690, guid: b2f1ea11c908a4c08b2c74a10f00ca0a, type: 3}
  m_Parent: {fileID: 0}
  m_ModifiedSerializedProperties: 0
  m_ValidKeywords: []
  m_InvalidKeywords: []
  m_LightmapFlags: 4
  m_EnableInstancingVariants: 0
  m_DoubleSidedGI: 0
  m_CustomRenderQueue: -1
  stringTagMap: {}
  disabledShaderPasses: []
  m_LockedProperties: 
  m_SavedProperties:
    serializedVersion: 3
    m_TexEnvs:
    - _SampleTexture2D_547ed6552d2b440d8bb4a44a866bd174_Texture_1:
        m_Texture: {fileID: 2800000, guid: 19bfcd2fbb09ed943accd26d02c5ea78, type: 3}
        m_Scale: {x: 1, y: 1}
        m_Offset: {x: 0, y: 0}
    - _Texture2D:
        m_Texture: {fileID: 0}
        m_Scale: {x: 1, y: 1}
        m_Offset: {x: 0, y: 0}
    m_Ints: []
    m_Floats:
    - _BUILTIN_QueueControl: 0
    - _BUILTIN_QueueOffset: 0
    - _Intensity: 1
    - _Speed: 12
    m_Colors:
    - _Color: {r: 1, g: 1, b: 1, a: 0}
  m_BuildTextureStacks: []
