%YAML 1.1
%TAG !u! tag:unity3d.com,2011:
--- !u!114 &-5197829463516783859
MonoBehaviour:
  m_ObjectHideFlags: 11
  m_CorrespondingSourceObject: {fileID: 0}
  m_PrefabInstance: {fileID: 0}
  m_PrefabAsset: {fileID: 0}
  m_GameObject: {fileID: 0}
  m_Enabled: 1
  m_EditorHideFlags: 0
  m_Script: {fileID: 11500000, guid: 639247ca83abc874e893eb93af2b5e44, type: 3}
  m_Name: 
  m_EditorClassIdentifier: 
  version: 0
--- !u!21 &2100000
Material:
  serializedVersion: 8
  m_ObjectHideFlags: 0
  m_CorrespondingSourceObject: {fileID: 0}
  m_PrefabInstance: {fileID: 0}
  m_PrefabAsset: {fileID: 0}
  m_Name: hexUnblockedMaterial
  m_Shader: {fileID: -6465566751694194690, guid: b35fd9087b75c446c86b784a462112f6, type: 3}
  m_Parent: {fileID: 0}
  m_ModifiedSerializedProperties: 0
  m_ValidKeywords: []
  m_InvalidKeywords: []
  m_LightmapFlags: 4
  m_EnableInstancingVariants: 0
  m_DoubleSidedGI: 0
  m_CustomRenderQueue: -1
  stringTagMap: {}
  disabledShaderPasses: []
  m_LockedProperties: 
  m_SavedProperties:
    serializedVersion: 3
    m_TexEnvs: []
    m_Ints: []
    m_Floats:
    - _BUILTIN_QueueControl: 0
    - _BUILTIN_QueueOffset: 0
    - _Intensity: 1
    - _Speed: 2
    - _intensity: 1.5
    - _speed: 2
    m_Colors:
    - _Color: {r: 0.09655403, g: 0.8392157, b: 0, a: 0}
    - _color: {r: 0, g: 0.80495757, b: 0.8113208, a: 0}
  m_BuildTextureStacks: []
